%YAML 1.1
%TAG !u! tag:unity3d.com,2011:
--- !u!74 &7400000
AnimationClip:
  m_ObjectHideFlags: 0
  m_CorrespondingSourceObject: {fileID: 0}
  m_PrefabInstance: {fileID: 0}
  m_PrefabAsset: {fileID: 0}
  m_Name: KoolaidManScared
  serializedVersion: 6
  m_Legacy: 0
  m_Compressed: 0
  m_UseHighQualityCurve: 1
  m_RotationCurves: []
  m_CompressedRotationCurves: []
  m_EulerCurves: []
  m_PositionCurves: []
  m_ScaleCurves: []
  m_FloatCurves: []
  m_PPtrCurves:
  - curve:
    - time: 0
      value: {fileID: 21300000, guid: a3caaac2bcca1f94ea38e8fb99245dd0, type: 3}
    - time: 0.16666667
      value: {fileID: 21300000, guid: 526aeac73aa40eb4bb57f0ccde7856d4, type: 3}
    - time: 0.31666666
      value: {fileID: 21300000, guid: 8adb13af1e1d22c449d56b6dbdd48495, type: 3}
    - time: 0.98333335
      value: {fileID: 21300000, guid: 526aeac73aa40eb4bb57f0ccde7856d4, type: 3}
    - time: 1.2666667
      value: {fileID: 21300000, guid: 8adb13af1e1d22c449d56b6dbdd48495, type: 3}
    - time: 1.6
      value: {fileID: 21300000, guid: 526aeac73aa40eb4bb57f0ccde7856d4, type: 3}
    - time: 1.8333334
      value: {fileID: 21300000, guid: 8adb13af1e1d22c449d56b6dbdd48495, type: 3}
    - time: 2.5833333
      value: {fileID: 21300000, guid: 8adb13af1e1d22c449d56b6dbdd48495, type: 3}
    - time: 2.7666667
      value: {fileID: 21300000, guid: cae257af0297a8a4292d0942fd17fe82, type: 3}
    - time: 2.9333334
      value: {fileID: 21300000, guid: 8adb13af1e1d22c449d56b6dbdd48495, type: 3}
    - time: 3.0833333
      value: {fileID: 21300000, guid: cae257af0297a8a4292d0942fd17fe82, type: 3}
    - time: 3.2666667
      value: {fileID: 21300000, guid: 8adb13af1e1d22c449d56b6dbdd48495, type: 3}
    - time: 3.4166667
      value: {fileID: 21300000, guid: cae257af0297a8a4292d0942fd17fe82, type: 3}
    - time: 3.6
      value: {fileID: 21300000, guid: 8adb13af1e1d22c449d56b6dbdd48495, type: 3}
    - time: 3.7666667
      value: {fileID: 21300000, guid: cae257af0297a8a4292d0942fd17fe82, type: 3}
    - time: 3.95
      value: {fileID: 21300000, guid: 8adb13af1e1d22c449d56b6dbdd48495, type: 3}
    - time: 4.15
      value: {fileID: 21300000, guid: cae257af0297a8a4292d0942fd17fe82, type: 3}
    - time: 4.3333335
      value: {fileID: 21300000, guid: 8adb13af1e1d22c449d56b6dbdd48495, type: 3}
    - time: 4.483333
      value: {fileID: 21300000, guid: cae257af0297a8a4292d0942fd17fe82, type: 3}
    - time: 4.6666665
      value: {fileID: 21300000, guid: 8adb13af1e1d22c449d56b6dbdd48495, type: 3}
    - time: 4.8333335
      value: {fileID: 21300000, guid: cae257af0297a8a4292d0942fd17fe82, type: 3}
    - time: 5.016667
      value: {fileID: 21300000, guid: 8adb13af1e1d22c449d56b6dbdd48495, type: 3}
    attribute: m_Sprite
    path: 
    classID: 212
    script: {fileID: 0}
  m_SampleRate: 60
  m_WrapMode: 0
  m_Bounds:
    m_Center: {x: 0, y: 0, z: 0}
    m_Extent: {x: 0, y: 0, z: 0}
  m_ClipBindingConstant:
    genericBindings:
    - serializedVersion: 2
      path: 0
      attribute: 0
      script: {fileID: 0}
      typeID: 212
      customType: 23
      isPPtrCurve: 1
    pptrCurveMapping:
    - {fileID: 21300000, guid: a3caaac2bcca1f94ea38e8fb99245dd0, type: 3}
    - {fileID: 21300000, guid: 526aeac73aa40eb4bb57f0ccde7856d4, type: 3}
    - {fileID: 21300000, guid: 8adb13af1e1d22c449d56b6dbdd48495, type: 3}
    - {fileID: 21300000, guid: 526aeac73aa40eb4bb57f0ccde7856d4, type: 3}
    - {fileID: 21300000, guid: 8adb13af1e1d22c449d56b6dbdd48495, type: 3}
    - {fileID: 21300000, guid: 526aeac73aa40eb4bb57f0ccde7856d4, type: 3}
    - {fileID: 21300000, guid: 8adb13af1e1d22c449d56b6dbdd48495, type: 3}
    - {fileID: 21300000, guid: 8adb13af1e1d22c449d56b6dbdd48495, type: 3}
    - {fileID: 21300000, guid: cae257af0297a8a4292d0942fd17fe82, type: 3}
    - {fileID: 21300000, guid: 8adb13af1e1d22c449d56b6dbdd48495, type: 3}
    - {fileID: 21300000, guid: cae257af0297a8a4292d0942fd17fe82, type: 3}
    - {fileID: 21300000, guid: 8adb13af1e1d22c449d56b6dbdd48495, type: 3}
    - {fileID: 21300000, guid: cae257af0297a8a4292d0942fd17fe82, type: 3}
    - {fileID: 21300000, guid: 8adb13af1e1d22c449d56b6dbdd48495, type: 3}
    - {fileID: 21300000, guid: cae257af0297a8a4292d0942fd17fe82, type: 3}
    - {fileID: 21300000, guid: 8adb13af1e1d22c449d56b6dbdd48495, type: 3}
    - {fileID: 21300000, guid: cae257af0297a8a4292d0942fd17fe82, type: 3}
    - {fileID: 21300000, guid: 8adb13af1e1d22c449d56b6dbdd48495, type: 3}
    - {fileID: 21300000, guid: cae257af0297a8a4292d0942fd17fe82, type: 3}
    - {fileID: 21300000, guid: 8adb13af1e1d22c449d56b6dbdd48495, type: 3}
    - {fileID: 21300000, guid: cae257af0297a8a4292d0942fd17fe82, type: 3}
    - {fileID: 21300000, guid: 8adb13af1e1d22c449d56b6dbdd48495, type: 3}
  m_AnimationClipSettings:
    serializedVersion: 2
    m_AdditiveReferencePoseClip: {fileID: 0}
    m_AdditiveReferencePoseTime: 0
    m_StartTime: 0
    m_StopTime: 5.033334
    m_OrientationOffsetY: 0
    m_Level: 0
    m_CycleOffset: 0
    m_HasAdditiveReferencePose: 0
    m_LoopTime: 1
    m_LoopBlend: 0
    m_LoopBlendOrientation: 0
    m_LoopBlendPositionY: 0
    m_LoopBlendPositionXZ: 0
    m_KeepOriginalOrientation: 0
    m_KeepOriginalPositionY: 1
    m_KeepOriginalPositionXZ: 0
    m_HeightFromFeet: 0
    m_Mirror: 0
  m_EditorCurves: []
  m_EulerEditorCurves: []
  m_HasGenericRootTransform: 0
  m_HasMotionFloatCurves: 0
  m_Events: []
